Clear Creek
…
[Steelhead and spring run juv rearing habitat are the same, because small sample size for both steelhead and spring run, criteria is the same so lumped the data together TODO]

Combine Spawning and Rearing Data

The instream spawning and rearing habitat data described above for Fall Run Chinook Salmon (FR), Spring Run Chinook Salmon (SR), and Steelhead (ST) is cobmined for use in the DSM in the following format.

clear_creek_instream

## # A tibble: 23 x 10
##    flow_cfs FR_spawn_wua FR_fry_wua FR_juv_wua SR_spawn_wua SR_fry_wua
##       <dbl>        <dbl>      <dbl>      <dbl>        <dbl>      <dbl>
##  1       50        13000     11526.      4835.         34.3      3139.
##  2       75        13000     11367.      5341.         65.5      3094.
##  3      100        13000     11082.      5753.         98.4      3116.
##  4      125        13000     10788.      6090.        128.       3179.
##  5      150        13000     10549.      6382.        157.       3192.
##  6      175        13000     10280.      6642.        187.       3237.
##  7      200        13000     10114.      6841.        212.       3280.
##  8      225        13000      9967.      6996.        235.       3399.
##  9      250        13000      9847.      7099.        257.       3482.
## 10      275        13000      9769.      7197.        278.       3659.
## #  with 13 more rows, and 4 more variables: SR_juv_wua <dbl>,
## #   ST_spawn_wua <dbl>, ST_fry_wua <dbl>, ST_juv_wua <dbl>
