Stanislaus River
…
Instream Spawning and Rearing Habiat

Data Source: Spawning Aceituno 1993 (FWS) PHABSIM model and the rearing from the FWS River2D model. TODO Need to add links to souce documents TODO https://flowwest.github.io/cvpiaHabitat/reference/stanislaus_river_instream.html

Description of modeling TODO

Mark Gard instructed us to use I4:N60 of the Stanislaus tab within his IFIMWUA.xlsx These cells represent the sums of the rearing habitat in the canyon segment, knights ferry to orange blossom, orange blossom to jacomb myers, and jacob myers to san joaquin and then converted from sqft to sqft/1000ft. Spawning is modeled as one 50 mi segment.

Mark Gard WUA data

stanislaus_raw <- read_excel('data-raw/mark_gard_data/IFIMWUA.xlsx', range = "I4:N60", sheet = 'Stanislaus',
                             col_names = c('flow_cfs', 'FR_fry_wua', 'ST_fry_wua', 'FR_juv_wua', 'ST_juv_wua', 'FR_spawn_wua'))
stanislaus_raw

## # A tibble: 57 x 6
##    flow_cfs FR_fry_wua ST_fry_wua FR_juv_wua ST_juv_wua FR_spawn_wua
##       <dbl>      <dbl>      <dbl>      <dbl>      <dbl>        <dbl>
##  1      250      3727.      3257.      2174.      2673.           NA
##  2      300      3574.      3296.      2384.      2678.           NA
##  3      400      3334.      3243.      2660.      2837.           NA
##  4      500      3207.      3253.      2839.      2848.           NA
##  5      600      3016.      2960.      2888.      2802.           NA
##  6      700      2921.      2804.      2878.      2706.           NA
##  7      800      2818.      2677.      2845.      2648.           NA
##  8     1000      2723.      2594.      2807.      2555.           NA
##  9     1100      2703.      2526.      2763.      2499.           NA
## 10     1200      2596.      2380.      2656.      2343.           NA
## # ... with 47 more rows
…
