San Joaquin River
…
## # A tibble: 47 x 4
##    flow_cfs FR_fry_wua FR_juv_wua watershed        
##       <int>      <dbl>      <dbl> <chr>            
##  1       25     21336.     28359. San Joaquin River
##  2       50     21336.     28359. San Joaquin River
##  3      100     19510.     29605. San Joaquin River
##  4      150     17522.     29753. San Joaquin River
##  5      200     16077.     28766. San Joaquin River
##  6      250     14969.     27499. San Joaquin River
##  7      300     14023.     26288. San Joaquin River
##  8      350     13331.     25070. San Joaquin River
##  9      400     12782.     23933. San Joaquin River
## 10      450     12362.     22929. San Joaquin River
## #  with 37 more rows
