Battle Creek
…
Combine Spawning and Rearing Data

The instream spawning and rearing habitat data described above for Fall Run Chinook Salmon (FR) and Steelhead (ST) is combined for use in the DSM in the following format.

battle_creek_instream

## # A tibble: 35 x 6
##    flow_cfs FR_spawn_wua FR_fry_wua FR_juv_wua ST_adult_wua watershed   
##       <dbl>        <dbl>      <dbl>      <dbl>        <dbl> <chr>       
##  1        8         130.     15577.      4952.        9123. Battle Creek
##  2       10         200.     15411.      5858         9728  Battle Creek
##  3       12         276.     15181.      6705.       10253. Battle Creek
##  4       14         359.     14929.      7488.       10711. Battle Creek
##  5       16         435.     14661.      8212.       11114. Battle Creek
##  6       18         514.     14371.      8880.       11459. Battle Creek
##  7       20         598.     14083.      9490.       11758. Battle Creek
##  8       22         685.     13801.     10052.       12017. Battle Creek
##  9       24         770.     13523.     10573.       12252. Battle Creek
## 10       26         846.     13115.     11205.       12439. Battle Creek
## #  with 25 more rows
