Cottonwood Creek
…
Combine Spawning and Rearing Data

The instream spawning and rearing habitat data described above for Fall Run Chinook Salmon (FR) is for use in the DSM in the following format.

cottonwood_creek_instream

## # A tibble: 36 x 5
##    flow_cfs FR_spawn_wua FR_fry_wua FR_juv_wua watershed       
##       <dbl>        <dbl>      <dbl>      <dbl> <chr>           
##  1       15          NA      16986.      5943. Cottonwood Creek
##  2       45          NA      19599.      8907. Cottonwood Creek
##  3       55          NA      20296.      9538. Cottonwood Creek
##  4       60          NA      20378.      9831. Cottonwood Creek
##  5       65          NA      20419.     10096. Cottonwood Creek
##  6       70          NA      20454.     10348. Cottonwood Creek
##  7       75          NA      20566.     10614. Cottonwood Creek
##  8       85          NA      20737.     11146. Cottonwood Creek
##  9       86         547.        NA         NA  Cottonwood Creek
## 10       95          NA      20922.     11734. Cottonwood Creek
## #  with 26 more rows
