Tuolumne River
…
Combine Spawning and Rearing Data

The instream spawning and rearing habitat data described above for Fall Run Chinook Salmon (FR) and Steelhead (ST) is for use in the DSM in the following format.

## # A tibble: 30 x 9
##    flow_cfs FR_spawn_wua FR_fry_wua FR_juv_wua ST_spawn_wua ST_fry_wua
##       <dbl>        <dbl>      <dbl>      <dbl>        <dbl>      <dbl>
##  1       50        2116.     32897.     48648.       11648.     54751.
##  2       75        4950.     30762.     50597.       17138.     50438.
##  3      100        7447.     28799.     51759.       21449.     46885.
##  4      125       10808.     27026.     52516.       24939.     44259.
##  5      150       13072.     25415.     52814.       27814.     42362.
##  6      175       15233      24032.     52526.       30187.     40544.
##  7      200       16715.     22848.     51673.       32191.     38948.
##  8      225       17532.     21821.     50618.       33877.     37709.
##  9      250       18117.     20908.     49513.       35297.     36641.
## 10      275       18788.     20117.     48371.       36498.     35539.
## #  with 20 more rows, and 3 more variables: ST_juv_wua <dbl>,
## #   ST_adult_wua <dbl>, watershed <chr>
