Cottonwood Creek Instream Flow to Habitat Area Relationship — cottonwood_creek_instream • cvpiaHabitat
…
  watershedname of watershed

    Source

    CDFW 1979 and FWS 2014

    Details

    The spawning WUA values were derived from a PHABSIM model. The rearing values are from the FWS 2014
River2D model. The results are for Fall Run.

    Examples

cottonwood_creek_instream
#> # A tibble: 36 x 5
#>    flow_cfs FR_spawn_wua FR_fry_wua FR_juv_wua        watershed
#>       <int>        <dbl>      <dbl>      <dbl>            <chr>
#>  1       15           NA   16986.19   5942.784 Cottonwood Creek
#>  2       45           NA   19598.72   8906.857 Cottonwood Creek
#>  3       55           NA   20296.14   9538.362 Cottonwood Creek
#>  4       60           NA   20377.52   9831.300 Cottonwood Creek
#>  5       65           NA   20419.13  10095.545 Cottonwood Creek
#>  6       70           NA   20453.75  10347.757 Cottonwood Creek
#>  7       75           NA   20566.03  10613.977 Cottonwood Creek
#>  8       85           NA   20737.20  11146.174 Cottonwood Creek
#>  9       86     547.4119         NA         NA Cottonwood Creek
#> 10       95           NA   20921.86  11734.070 Cottonwood Creek
#> # ... with 26 more rows
…
