Cow Creek Instream Flow to Habitat Area Relationship — cow_creek_instream • cvpiaHabitat
…
  watershedname of watershed

    Source

    FWS 2011

    Details

    The rearing WUA values are from a River2D model done on South Cow Creek. The values are from two river
segments, Valley Floor Reach (5.11 miles) and Boero Reach (1.68 miles).

    Examples

cow_creek_instream
#> # A tibble: 30 x 4
#>    flow_cfs FR_fry_wua FR_juv_wua watershed
#>       <int>      <dbl>      <dbl> <chr>    
#>  1       10     12208.      3748. Cow Creek
#>  2       20     11880.      4674. Cow Creek
#>  3       30     12324.      5032. Cow Creek
#>  4       40     12859.      5662. Cow Creek
#>  5       50     13410.      6190. Cow Creek
#>  6       60     14124.      6631. Cow Creek
#>  7       70     14426.      7045. Cow Creek
#>  8       80     14535.      7420. Cow Creek
#>  9       90     14664.      7665. Cow Creek
#> 10      100     14662.      7952. Cow Creek
#> # ... with 20 more rows
…
