Mainstem Sacramento River Instream Rearing Habitat — sac_instream • cvpiaHabitat
…
    Lower-mid Sacramento River

    The CVPIA Lower-mid Sacramento River extends
from Wilkins Slough to the American River (58.0 mi). This reach overlaps with two of the study's, Battle Creek to
the confluence with the Feather River (186.5 mi) and the confluence with the Feather River to Freeport (33.9 mi).

    Lower Sacramento River

    The study's extent is from the confluence with the Feather River to Freeport (33.4 mi). The CVPIA Lower
Sacramento River extends from the confluence with the American River to Freeport (13.7 mi).

    Examples

upper_sacramento_river_instream
#> # A tibble: 81 x 3
#>    flow_cfs rearing_sq_meters              watershed
#>       <int>             <dbl>                  <chr>
#>  1     2000          408108.4 Upper Sacramento River
#>  2     2500          328336.6 Upper Sacramento River
#>  3     3000          300066.5 Upper Sacramento River
#>  4     3500          256124.3 Upper Sacramento River
#>  5     4000          296282.6 Upper Sacramento River
#>  6     4500          295832.9 Upper Sacramento River
#>  7     5000          262956.6 Upper Sacramento River
#>  8     5500          269656.5 Upper Sacramento River
#>  9     6000          260590.7 Upper Sacramento River
#> 10     6500          246153.8 Upper Sacramento River
#> # ... with 71 more rows
…
