Tuolumne River Instream Flow to Habitat Area Relationship — tuolumne_river_instream • cvpiaHabitat
…
watershedname of watershed

    Source

    Flo2D model by Stillwater, 2014

    Details

    The spawning and rearing WUAs were derived using a PHABSIM model by Stillwater 2010.

    Examples

tuolumne_river_instream
#> # A tibble: 30 x 9
#>    flow_cfs FR_spawn_wua FR_fry_wua FR_juv_wua ST_spawn_wua ST_fry_wua
#>       <int>        <dbl>      <dbl>      <dbl>        <dbl>      <dbl>
#>  1       50      2116.32   32897.03   48648.28     11648.21   54751.06
#>  2       75      4950.27   30762.01   50596.55     17137.87   50438.41
#>  3      100      7447.46   28799.02   51759.16     21449.10   46884.87
#>  4      125     10807.84   27025.69   52516.33     24938.94   44259.05
#>  5      150     13071.88   25415.04   52814.11     27813.79   42362.45
#>  6      175     15233.00   24032.45   52526.09     30187.09   40543.54
#>  7      200     16715.36   22847.85   51672.91     32190.74   38948.50
#>  8      225     17532.14   21821.38   50618.49     33876.89   37709.09
#>  9      250     18116.91   20907.80   49513.25     35297.01   36641.38
#> 10      275     18788.06   20116.93   48370.69     36497.83   35538.80
#> # ... with 20 more rows, and 3 more variables: ST_juv_wua <dbl>,
#> #   adult_ST_WUA <dbl>, watershed <chr>
…
