Mainstem Sacramento River Spawning Habitat — up_sac_spawn • cvpiaHabitat
…
Apr-Jun7-13 mthsWinter RunDec-JulMarApr-Aug

May-JunJul-Oct5-10 mthsSpring RunMar-SepMay-Jun

Aug-OctMid-SepNov-Mar3-15 mthsFall RunJun-Dec

Sep-OctSep-DecOct-NovDec-Mar1-7 mths

    Generalised life history Yoshinyama et al. 1998

    Examples

upper_sac_ACID_boards_in
#> # A tibble: 30 x 6
#>    flow_cfs FR_spawn_WUA LFR_spawn_WUA ST_spawn_WUA WR_spawn_WUA watershed     
#>       <dbl>        <dbl>         <dbl>        <dbl>        <dbl> <chr>         
#>  1     3250        8554.         7945.        1998.        5321. Upper Sacrame…
#>  2     3500        8757.         8204.        2035.        5627. Upper Sacrame…
#>  3     3750        8940.         8330.        2041.        5881. Upper Sacrame…
#>  4     4000        9069.         8395.        2025.        6111. Upper Sacrame…
#>  5     4250        9082.         8429.        2009.        6350. Upper Sacrame…
#>  6     4500        9193.         8423.        2005.        6580. Upper Sacrame…
#>  7     4750        9312.         8375.        1999.        6796. Upper Sacrame…
#>  8     5000        9282.         8310.        1997.        6982. Upper Sacrame…
#>  9     5250        9299.         8229.        2003.        7126. Upper Sacrame…
#> 10     5500        9254.         8120.        2008.        7278. Upper Sacrame…
#> # ... with 20 more rows
…
