Upper Sacramento River Instream Flow to Habitat Area Relationship (A.C.I.D. Boards In) — upper_sac_ACID_boards_in • cvpiaHabitat
…
  Fall Run 
 Jun-Dec 
 Sep-Oct 
 Sep-Dec 
 Oct-Nov 
 Dec-Mar 
 1-7 mths 

Generalised life history Yoshinyama et al. 1998

    Examples

upper_sac_ACID_boards_in
#> # A tibble: 30 x 12
#>    flow_cfs FR_fry_WUA FR_juv_WUA FR_spawn_WUA LFR_fry_WUA LFR_juv_WUA
#>       <dbl>      <dbl>      <dbl>        <dbl>       <dbl>       <dbl>
#>  1     3250  12165.797   4582.240     8553.719   11294.604    4150.801
#>  2     3500  11867.933   4499.783     8756.922   11066.133    4082.004
#>  3     3750  11920.436   4419.088     8939.986   11199.441    4013.369
#>  4     4000  11726.850   4357.855     9069.236   11074.919    3962.202
#>  5     4250  11432.613   4346.044     9082.162   10809.985    3952.086
#>  6     4500  11055.769   4303.682     9192.716   10482.806    3917.629
#>  7     4750  10605.775   4226.807     9311.547   10102.670    3851.167
#>  8     5000  10152.062   4241.114     9282.365    9692.486    3773.503
#>  9     5250   9765.909   4057.402     9299.413    9304.173    3702.602
#> 10     5500   9398.373   3981.470     9254.085    8897.696    3637.407
#> # ... with 20 more rows, and 6 more variables: LFR_spawn_WUA <dbl>,
#> #   ST_spawn_WUA <dbl>, WR_fry_WUA <dbl>, WR_juv_WUA <dbl>, WR_spawn_WUA <dbl>,
#> #   watershed <chr>
…
