Upper-mid Sacramento River Region Instream Flow to Habitat Area Relationship — upper_mid_sac_region_instream • cvpiaHabitat
…
Elder Creek

Mill Creek

Paynes Creek

Stony Creek

Thomes Creek

    Examples

upper_mid_sac_region_instream
#> # A tibble: 23 x 5
#>    flow_cfs FR_spawn_wua FR_fry_wua FR_juv_wua watershed                        
#>       <int>        <dbl>      <dbl>      <dbl> <chr>                            
#>  1       50        1681.     13124.     11115. Upper-mid Sacramento River Region
#>  2       75        2010.     12408.     12034. Upper-mid Sacramento River Region
#>  3      100        2188.     11472.     12449. Upper-mid Sacramento River Region
#>  4      125        2280.     10642.     12463. Upper-mid Sacramento River Region
#>  5      150        2349.     10026.     12230. Upper-mid Sacramento River Region
#>  6      175        2416.      9477.     11803. Upper-mid Sacramento River Region
#>  7      200        2445.      9078.     11316. Upper-mid Sacramento River Region
#>  8      225        2432.      8791.     10786. Upper-mid Sacramento River Region
#>  9      250        2399.      8572.     10230. Upper-mid Sacramento River Region
#> 10      275        2347.      8415.      9723. Upper-mid Sacramento River Region
#> # ... with 13 more rows
…
