Yuba River Instream Flow to Habitat Area Relationship — yuba_river_instream • cvpiaHabitat
…
ST_juv_wuaSteelhead juvenile WUA in square feet per 1000 feet

ST_adult_wuaSteelhead adult WUA in square feet per 1000 feet

watershedname of watershed

    Source

    TODO fix source

    Examples

yuba_river_instream
#> # A tibble: 50 x 10
#>    flow_cfs FR_spawn_wua FR_fry_wua FR_juv_wua SR_spawn_wua ST_spawn_wua
#>       <dbl>        <dbl>      <dbl>      <dbl>        <dbl>        <dbl>
#>  1      150        3087.      1902.       42.9        1211.         63.6
#>  2      250        3879.      1746.       61.6        1893.        162. 
#>  3      300        4090.      1779.       71.3        2129.        223. 
#>  4      350        4258.      1747.       80.2        2315.        286. 
#>  5      400       10191.      4081.     1050.         5400.       1079. 
#>  6      500       10794.      3992.     1199.         6038.       1473. 
#>  7      600       11259.      3969.     1319.         6461.       1838. 
#>  8      700       11685.      3955.     1434.         6766.       2205. 
#>  9      800       12012.      3947.     1536.         7014.       2556. 
#> 10      900       12230.      3956.     1606.         7207.       2859. 
#> # ... with 40 more rows, and 4 more variables: ST_fry_wua <dbl>,
#> #   ST_juv_wua <dbl>, ST_adult_wua <dbl>, watershed <chr>
…
